{
    "key": "group_5923010cf0ef2",
    "title": "Button",
    "fields": [
        {
            "key": "field_5923014afc753",
            "label": "Link",
            "name": "link",
            "type": "link",
            "instructions": "",
            "required": 0,
            "conditional_logic": 0,
            "wrapper": {
                "width": "60",
                "class": "",
                "id": ""
            },
            "return_format": "array"
        },
        {
            "key": "field_5923016cfc755",
            "label": "Icon",
            "name": "icon",
            "type": "text",
            "instructions": "<a href=\"https:\/\/fontawesome.com\/icons\" target=\"_BLANK\">FontAwesome icon name<\/a>",
            "required": 0,
            "conditional_logic": 0,
            "wrapper": {
                "width": "40",
                "class": "",
                "id": ""
            },
            "default_value": "",
            "placeholder": "Ex: file-text (not fa-file-text)",
            "prepend": "",
            "append": "",
            "maxlength": ""
        }
    ],
    "location": [
        [
            {
                "param": "post_type",
                "operator": "==",
                "value": "post"
            }
        ]
    ],
    "menu_order": 0,
    "position": "normal",
    "style": "default",
    "label_placement": "top",
    "instruction_placement": "label",
    "hide_on_screen": "",
    "active": 0,
    "description": "",
    "modified": 1520280969
}